…
## What is mean total number of steps taken per day?

#### Calculating the total number of steps taken per day:

```r
tot_step <- dat %>% group_by(date) %>% summarise(total.steps = sum(steps,na.rm = TRUE))
tot_step
```

```
## # A tibble: 61 x 2
##          date total.steps
##        <dttm>       <int>
##  1 2012-10-01           0
##  2 2012-10-02         126
##  3 2012-10-03       11352
##  4 2012-10-04       12116
##  5 2012-10-05       13294
##  6 2012-10-06       15420
##  7 2012-10-07       11015
##  8 2012-10-08           0
##  9 2012-10-09       12811
## 10 2012-10-10        9900
## # ... with 51 more rows
```
…
#### Calculating the total number of steps taken per day:

```r
tot.step <- new_dat %>% group_by(date) %>% summarise(total.steps = sum(steps,na.rm = TRUE))
tot.step
```

```
## # A tibble: 61 x 2
##          date total.steps
##        <dttm>       <dbl>
##  1 2012-10-01    10766.19
##  2 2012-10-02      126.00
##  3 2012-10-03    11352.00
##  4 2012-10-04    12116.00
##  5 2012-10-05    13294.00
##  6 2012-10-06    15420.00
##  7 2012-10-07    11015.00
##  8 2012-10-08    10766.19
##  9 2012-10-09    12811.00
## 10 2012-10-10     9900.00
## # ... with 51 more rows
```
…
#### Creating a panel plot of average number of steps per interval

```r
ave.dat <- new_dat %>%
    group_by(day,interval) %>%
    summarise(mean.steps = mean(steps,na.rm = TRUE))
ave.dat
```

```
## # A tibble: 576 x 3
## # Groups:   day [?]
##        day interval mean.steps
##     <fctr>    <int>      <dbl>
##  1 Weekday        0 2.25115304
##  2 Weekday        5 0.44528302
##  3 Weekday       10 0.17316562
##  4 Weekday       15 0.19790356
##  5 Weekday       20 0.09895178
##  6 Weekday       25 1.59035639
##  7 Weekday       30 0.69266247
##  8 Weekday       35 1.13794549
##  9 Weekday       40 0.00000000
## 10 Weekday       45 1.79622642
## # ... with 566 more rows
```
…
